{
  "items": [
    {
      "external_urls": {
        "spotify": "https://open.spotify.com/artist/5K4W6rqBFWDnAN6FQUkS6x"
      },
      "followers": {
        "href": null,
        "total": 18669725
      },
      "genres": [
        "chicago rap",
        "rap"
      ],
      "href": "https://api.spotify.com/v1/artists/5K4W6rqBFWDnAN6FQUkS6x",
      "id": "5K4W6rqBFWDnAN6FQUkS6x",
      "images": [
        {
          "height": 640,
          "url": "https://i.scdn.co/image/ab6761610000e5eb867008a971fae0f4d913f63a",
          "width": 640
        },
        {
          "height": 320,
          "url": "https://i.scdn.co/image/ab67616100005174867008a971fae0f4d913f63a",
          "width": 320
        },
        {
          "height": 160,
          "url": "https://i.scdn.co/image/ab6761610000f178867008a971fae0f4d913f63a",
          "width": 160
        }
      ],
      "name": "Kanye West",
      "popularity": 89,
      "type": "artist",
      "uri": "spotify:artist:5K4W6rqBFWDnAN6FQUkS6x"
    },
    {
      "external_urls": {
        "spotify": "https://open.spotify.com/artist/3TVXtAsR1Inumwj472S9r4"
      },
      "followers": {
        "href": null,
        "total": 68799141
      },
      "genres": [
        "canadian hip hop",
        "canadian pop",
        "hip hop",
        "rap",
        "toronto rap"
      ],
      "href": "https://api.spotify.com/v1/artists/3TVXtAsR1Inumwj472S9r4",
      "id": "3TVXtAsR1Inumwj472S9r4",
      "images": [
        {
          "height": 640,
          "url": "https://i.scdn.co/image/ab6761610000e5eb4293385d324db8558179afd9",
          "width": 640
        },
        {
          "height": 320,
          "url": "https://i.scdn.co/image/ab676161000051744293385d324db8558179afd9",
          "width": 320
        },
        {
          "height": 160,
          "url": "https://i.scdn.co/image/ab6761610000f1784293385d324db8558179afd9",
          "width": 160
        }
      ],
      "name": "Drake",
      "popularity": 97,
      "type": "artist",
      "uri": "spotify:artist:3TVXtAsR1Inumwj472S9r4"
    },
    {
      "external_urls": {
        "spotify": "https://open.spotify.com/artist/3WrFJ7ztbogyGnTHbHJFl2"
      },
      "followers": {
        "href": null,
        "total": 23927639
      },
      "genres": [
        "beatlesque",
        "british invasion",
        "classic rock",
        "merseybeat",
        "psychedelic rock",
        "rock"
      ],
      "href": "https://api.spotify.com/v1/artists/3WrFJ7ztbogyGnTHbHJFl2",
      "id": "3WrFJ7ztbogyGnTHbHJFl2",
      "images": [
        {
          "height": 640,
          "url": "https://i.scdn.co/image/ab6761610000e5ebe9348cc01ff5d55971b22433",
          "width": 640
        },
        {
          "height": 320,
          "url": "https://i.scdn.co/image/ab67616100005174e9348cc01ff5d55971b22433",
          "width": 320
        },
        {
          "height": 160,
          "url": "https://i.scdn.co/image/ab6761610000f178e9348cc01ff5d55971b22433",
          "width": 160
        }
      ],
      "name": "The Beatles",
      "popularity": 82,
      "type": "artist",
      "uri": "spotify:artist:3WrFJ7ztbogyGnTHbHJFl2"
    },
    {
      "external_urls": {
        "spotify": "https://open.spotify.com/artist/4LLpKhyESsyAXpc4laK94U"
      },
      "followers": {
        "href": null,
        "total": 8187247
      },
      "genres": [
        "hip hop",
        "pittsburgh rap",
        "rap"
      ],
      "href": "https://api.spotify.com/v1/artists/4LLpKhyESsyAXpc4laK94U",
      "id": "4LLpKhyESsyAXpc4laK94U",
      "images": [
        {
          "height": 640,
          "url": "https://i.scdn.co/image/ab6761610000e5ebed3b89aa602145fde71a163a",
          "width": 640
        },
        {
          "height": 320,
          "url": "https://i.scdn.co/image/ab67616100005174ed3b89aa602145fde71a163a",
          "width": 320
        },
        {
          "height": 160,
          "url": "https://i.scdn.co/image/ab6761610000f178ed3b89aa602145fde71a163a",
          "width": 160
        }
      ],
      "name": "Mac Miller",
      "popularity": 82,
      "type": "artist",
      "uri": "spotify:artist:4LLpKhyESsyAXpc4laK94U"
    },
    {
      "external_urls": {
        "spotify": "https://open.spotify.com/artist/15UsOTVnJzReFVN1VCnxy4"
      },
      "followers": {
        "href": null,
        "total": 38939215
      },
      "genres": [
        "emo rap",
        "miami hip hop"
      ],
      "href": "https://api.spotify.com/v1/artists/15UsOTVnJzReFVN1VCnxy4",
      "id": "15UsOTVnJzReFVN1VCnxy4",
      "images": [
        {
          "height": 640,
          "url": "https://i.scdn.co/image/ab6761610000e5ebf0c20db5ef6c6fbe5135d2e4",
          "width": 640
        },
        {
          "height": 320,
          "url": "https://i.scdn.co/image/ab67616100005174f0c20db5ef6c6fbe5135d2e4",
          "width": 320
        },
        {
          "height": 160,
          "url": "https://i.scdn.co/image/ab6761610000f178f0c20db5ef6c6fbe5135d2e4",
          "width": 160
        }
      ],
      "name": "XXXTENTACION",
      "popularity": 86,
      "type": "artist",
      "uri": "spotify:artist:15UsOTVnJzReFVN1VCnxy4"
    }
  ],
  "total": 50,
  "limit": 5,
  "offset": 0,
  "href": "https://api.spotify.com/v1/me/top/artists?limit=5&offset=0&time_range=long_term",
  "previous": null,
  "next": "https://api.spotify.com/v1/me/top/artists?limit=5&offset=5&time_range=long_term"
}
